{
	"current_page": 1,
	"data": [
		{
			"id": 1,
			"code": 17,
			"status": "published",
			"imported_t": "2023-10-12T22:59:42.000000Z",
			"url": "http:\/\/world-en.openfoodfacts.org\/product\/0000000000017\/vitoria-crackers",
			"creator": "kiliweb",
			"created_t": 1529059080,
			"last_modified_t": 1561463718,
			"product_name": "Vitória crackers",
			"quantity": null,
			"brands": null,
			"categories": null,
			"labels": null,
			"cities": null,
			"purchase_places": null,
			"stores": null,
			"ingredients_text": null,
			"traces": null,
			"serving_size": null,
			"serving_quantity": null,
			"nutriscore_score": null,
			"nutriscore_grade": null,
			"main_category": null,
			"image_url": "https:\/\/static.openfoodfacts.org\/images\/products\/000\/000\/000\/0017\/front_fr.4.400.jpg"
		},
		{
			"id": 2,
			"code": 31,
			"status": "published",
			"imported_t": "2023-10-12T22:59:42.000000Z",
			"url": "http:\/\/world-en.openfoodfacts.org\/product\/0000000000031\/cacao",
			"creator": "isagoofy",
			"created_t": 1539464774,
			"last_modified_t": 1539464817,
			"product_name": "Cacao",
			"quantity": "130 g",
			"brands": null,
			"categories": null,
			"labels": null,
			"cities": null,
			"purchase_places": null,
			"stores": null,
			"ingredients_text": null,
			"traces": null,
			"serving_size": null,
			"serving_quantity": null,
			"nutriscore_score": null,
			"nutriscore_grade": null,
			"main_category": null,
			"image_url": "https:\/\/static.openfoodfacts.org\/images\/products\/000\/000\/000\/0031\/front_fr.3.400.jpg"
		}
	],
	"first_page_url": "http:\/\/localhost\/api\/products?page=1",
	"from": 1,
	"last_page": 450,
	"last_page_url": "http:\/\/localhost\/api\/products?page=450",
	"links": [
		{
			"url": null,
			"label": "&laquo; Previous",
			"active": false
		},
		{
			"url": "http:\/\/localhost\/api\/products?page=1",
			"label": "1",
			"active": true
		},
		{
			"url": "http:\/\/localhost\/api\/products?page=2",
			"label": "2",
			"active": false
		},
		{
			"url": "http:\/\/localhost\/api\/products?page=3",
			"label": "3",
			"active": false
		},
		{
			"url": "http:\/\/localhost\/api\/products?page=4",
			"label": "4",
			"active": false
		},
		{
			"url": "http:\/\/localhost\/api\/products?page=5",
			"label": "5",
			"active": false
		},
		{
			"url": "http:\/\/localhost\/api\/products?page=6",
			"label": "6",
			"active": false
		},
		{
			"url": "http:\/\/localhost\/api\/products?page=7",
			"label": "7",
			"active": false
		},
		{
			"url": "http:\/\/localhost\/api\/products?page=8",
			"label": "8",
			"active": false
		},
		{
			"url": "http:\/\/localhost\/api\/products?page=9",
			"label": "9",
			"active": false
		},
		{
			"url": "http:\/\/localhost\/api\/products?page=10",
			"label": "10",
			"active": false
		},
		{
			"url": null,
			"label": "...",
			"active": false
		},
		{
			"url": "http:\/\/localhost\/api\/products?page=449",
			"label": "449",
			"active": false
		},
		{
			"url": "http:\/\/localhost\/api\/products?page=450",
			"label": "450",
			"active": false
		},
		{
			"url": "http:\/\/localhost\/api\/products?page=2",
			"label": "Next &raquo;",
			"active": false
		}
	],
	"next_page_url": "http:\/\/localhost\/api\/products?page=2",
	"path": "http:\/\/localhost\/api\/products",
	"per_page": 2,
	"prev_page_url": null,
	"to": 2,
	"total": 900
}
